[gd_scene load_steps=3 format=2]

[ext_resource path="res://scenes/ui/buttons/_ButtonBase.tscn" type="PackedScene" id=1]
[ext_resource path="res://scripts/ui/buttons/NewGame.cs" type="Script" id=2]

[node name="NewGame" instance=ExtResource( 1 )]
script = ExtResource( 2 )

[node name="Panel" parent="." index="0"]
margin_bottom = 50.0

[node name="Button" parent="." index="1"]
margin_bottom = 50.0

[node name="LabelMargin" parent="." index="2"]
margin_bottom = 50.0

[node name="Label" parent="LabelMargin" index="0"]
margin_bottom = 38.0
bbcode_text = "[center]New Game[/center]"
text = "New Game"
