[gd_resource type="DynamicFont" load_steps=2 format=2]

[sub_resource type="DynamicFontData" id=1]
resource_local_to_scene = true
font_path = "res://assets/fonts/times.ttf"

[resource]
size = 14
font_data = SubResource( 1 )
