[gd_scene load_steps=7 format=2]

[ext_resource path="res://assets/fonts/TNR16.tres" type="DynamicFont" id=1]
[ext_resource path="res://assets/styles/ButtonNormal.tres" type="StyleBox" id=2]
[ext_resource path="res://assets/fonts/TNR14.tres" type="DynamicFont" id=3]
[ext_resource path="res://scripts/ui/widgets/Tooltip.cs" type="Script" id=4]
[ext_resource path="res://assets/fonts/TNR14Bold.tres" type="DynamicFont" id=5]
[ext_resource path="res://assets/fonts/TNR16Bold.tres" type="DynamicFont" id=6]

[node name="Tooltip" type="Popup"]
visible = true
rect_min_size = Vector2( 400, 50 )
mouse_filter = 2
script = ExtResource( 4 )

[node name="Panel" type="Panel" parent="."]
anchor_right = 1.0
anchor_bottom = 1.0
mouse_filter = 2
custom_styles/panel = ExtResource( 2 )

[node name="LabelContainer" type="VBoxContainer" parent="Panel"]
anchor_right = 1.0
margin_left = 6.0
margin_top = 6.0
margin_right = -6.0
margin_bottom = 50.0
mouse_filter = 2
size_flags_horizontal = 3
size_flags_vertical = 4
custom_constants/separation = 6

[node name="NameLabel" type="RichTextLabel" parent="Panel/LabelContainer"]
margin_right = 388.0
margin_bottom = 20.0
mouse_filter = 2
size_flags_vertical = 4
custom_fonts/bold_font = ExtResource( 6 )
custom_fonts/normal_font = ExtResource( 1 )
bbcode_enabled = true
bbcode_text = "[center][b]TOOLTIP NAMELABEL[/b][/center]"
text = "TOOLTIP NAMELABEL"
fit_content_height = true
scroll_active = false

[node name="DescriptionLabel" type="RichTextLabel" parent="Panel/LabelContainer"]
margin_top = 26.0
margin_right = 388.0
margin_bottom = 44.0
mouse_filter = 2
size_flags_vertical = 4
custom_fonts/bold_font = ExtResource( 5 )
custom_fonts/normal_font = ExtResource( 3 )
bbcode_enabled = true
bbcode_text = "This is a description label."
text = "This is a description label."
fit_content_height = true
scroll_active = false
