[gd_scene load_steps=3 format=2]

[ext_resource path="res://assets/styles/WidgetLarge.tres" type="StyleBox" id=1]
[ext_resource path="res://scenes/ui/widgets/party/PartyViewer.tscn" type="PackedScene" id=2]

[node name="LeftColumn" type="Panel"]
anchor_right = 0.2
anchor_bottom = 1.0
custom_styles/panel = ExtResource( 1 )

[node name="PartyViewer" parent="." instance=ExtResource( 2 )]
visible = false
