[gd_scene load_steps=2 format=2]

[sub_resource type="StyleBoxFlat" id=1]
bg_color = Color( 0.12549, 0.12549, 0.12549, 1 )

[node name="Backdrop" type="CanvasLayer"]
layer = -1

[node name="Panel" type="Panel" parent="."]
anchor_right = 1.0
anchor_bottom = 1.0
custom_styles/panel = SubResource( 1 )
